[
    {
        "id": 1,
        "body": "Bonjour ceci est un message super pertinent !! ",
        "from": "Yohan",
        "read": false,
        "subject": "Salutation",
        "to": "Loïc"
      },
      {
        "id": 2,
        "body": "Bonjour ceci est la réponse!! ",
        "from": "Loïc",
        "read": true,
        "subject": "Réponse",
        "to": "Yohan"
      },
      {
        "id": 3,
        "body": "Lorem ipsum dolor sit amet, consectetur adipiscing elit, sed do Lorem ipsum dolor sit amet, consectetur adipiscing elit, sed do eiusmod tempor incididunt eiusmod tempor incididunt ",
        "from": "Yohan",
        "read": true,
        "subject": "Re",
        "to": "Loïc"
      }

]
